{
    "comment": "nflows represents RTT", 
    "flow_duration": 30, 
    "expclass": "LocalSetupExperiment", 
    "flow_configs": [
        1
    ], 
    "rate_configs": [
        4000000
    ], 
    "replicates": 10, 
    "rtt": 100.0, 
    "expname": "cc", 
    "flow_config": [
        1
    ], 
    "configs": {
        "unclocked": {
            "fse": true, 
            "clocking": false
        }, 
        "regular": {
            "fse": false, 
            "clocking": false
        }
    }
}