config,rate,expid,result,run,rtt,shape,duration
unclocked,6000000,2016-09-12T1825,0,1,100.0,DELAY_SEC=.100000 HALF_MS=50.000000 BDP=38437 PEAK=6000008,30
unclocked,6000000,2016-09-12T1825,0,2,100.0,DELAY_SEC=.100000 HALF_MS=50.000000 BDP=38437 PEAK=6000008,30
unclocked,6000000,2016-09-12T1825,0,3,100.0,DELAY_SEC=.100000 HALF_MS=50.000000 BDP=38437 PEAK=6000008,30
unclocked,6000000,2016-09-12T1825,0,4,100.0,DELAY_SEC=.100000 HALF_MS=50.000000 BDP=38437 PEAK=6000008,30
unclocked,6000000,2016-09-12T1825,0,5,100.0,DELAY_SEC=.100000 HALF_MS=50.000000 BDP=38437 PEAK=6000008,30
unclocked,6000000,2016-09-12T1825,0,6,100.0,DELAY_SEC=.100000 HALF_MS=50.000000 BDP=38437 PEAK=6000008,30
unclocked,6000000,2016-09-12T1825,0,7,100.0,DELAY_SEC=.100000 HALF_MS=50.000000 BDP=38437 PEAK=6000008,30
unclocked,6000000,2016-09-12T1825,0,8,100.0,DELAY_SEC=.100000 HALF_MS=50.000000 BDP=38437 PEAK=6000008,30
unclocked,6000000,2016-09-12T1825,0,9,100.0,DELAY_SEC=.100000 HALF_MS=50.000000 BDP=38437 PEAK=6000008,30
unclocked,6000000,2016-09-12T1825,0,10,100.0,DELAY_SEC=.100000 HALF_MS=50.000000 BDP=38437 PEAK=6000008,30
regular,6000000,2016-09-12T1825,0,1,100.0,DELAY_SEC=.100000 HALF_MS=50.000000 BDP=38437 PEAK=6000008,30
regular,6000000,2016-09-12T1825,0,2,100.0,DELAY_SEC=.100000 HALF_MS=50.000000 BDP=38437 PEAK=6000008,30
regular,6000000,2016-09-12T1825,0,3,100.0,DELAY_SEC=.100000 HALF_MS=50.000000 BDP=38437 PEAK=6000008,30
regular,6000000,2016-09-12T1825,0,4,100.0,DELAY_SEC=.100000 HALF_MS=50.000000 BDP=38437 PEAK=6000008,30
regular,6000000,2016-09-12T1825,0,5,100.0,DELAY_SEC=.100000 HALF_MS=50.000000 BDP=38437 PEAK=6000008,30
regular,6000000,2016-09-12T1825,0,6,100.0,DELAY_SEC=.100000 HALF_MS=50.000000 BDP=38437 PEAK=6000008,30
regular,6000000,2016-09-12T1825,0,7,100.0,DELAY_SEC=.100000 HALF_MS=50.000000 BDP=38437 PEAK=6000008,30
regular,6000000,2016-09-12T1825,0,8,100.0,DELAY_SEC=.100000 HALF_MS=50.000000 BDP=38437 PEAK=6000008,30
regular,6000000,2016-09-12T1825,0,9,100.0,DELAY_SEC=.100000 HALF_MS=50.000000 BDP=38437 PEAK=6000008,30
regular,6000000,2016-09-12T1825,0,10,100.0,DELAY_SEC=.100000 HALF_MS=50.000000 BDP=38437 PEAK=6000008,30
